Division,WeightClassKg,Place,Name,Team,BodyweightKg,Best3SquatKg,Best3BenchKg,Best3DeadliftKg,TotalKg,Equipment,Event,Sex
Boys,55.79,1,Max Snodgrass,Blooming Grove,51.8,111.13,63.5,120.2,294.84,Single-ply,SBD,M
Boys,51.71,2,Dalton Crawford,Kerens,51.26,88.45,61.23,102.06,251.74,Single-ply,SBD,M
Boys,51.71,3,Pablo Aviles,West,46.27,97.52,56.7,92.99,247.21,Single-ply,SBD,M
Boys,51.71,4,Guillermo Olvera,Alvarado,49.9,90.72,54.43,102.06,247.21,Single-ply,SBD,M
Boys,51.71,5,Grady Roden,Alvarado,49.9,90.72,47.63,102.06,240.4,Single-ply,SBD,M
Boys,51.71,6,Michael Anderson,Wortham,51.26,56.7,52.16,92.99,201.85,Single-ply,SBD,M
Boys,51.71,7,Curtis Evans,Riesel,46.27,79.38,36.29,72.57,188.24,Single-ply,SBD,M
Boys,51.71,8,Luis Camacho,Athens,49.9,52.16,38.56,88.45,179.17,Single-ply,SBD,M
Boys,51.71,DQ,Tyler Warren,Blooming Grove,46.99,,,,,Single-ply,SBD,M
Boys,55.79,1,Jage Smith,Kaufman,55.79,136.08,70.31,158.76,365.14,Single-ply,SBD,M
Boys,55.79,2,David Mavrez,Mexia,55.79,133.81,63.5,142.88,340.19,Single-ply,SBD,M
Boys,55.79,3,Ignacio Alvarado,Alvarado,53.98,131.54,68.04,136.08,335.66,Single-ply,SBD,M
Boys,55.79,4,Junior Sarabia,Mexia,55.34,108.86,70.31,138.35,317.51,Single-ply,SBD,M
Boys,55.79,5,Nathan Stibbens,Scurry-Rosser,55.34,131.54,63.5,120.2,315.25,Single-ply,SBD,M
Boys,55.79,6,Juan Marez,Mexia,52.62,113.4,58.97,127.01,299.37,Single-ply,SBD,M
Boys,55.79,7,Cosme Acala,Alvarado,54.88,104.33,72.57,113.4,290.3,Single-ply,SBD,M
Boys,55.79,8,Matt Wingett,Waco La Vega,52.62,104.33,45.36,104.33,254.01,Single-ply,SBD,M
Boys,59.87,1,Alex Ruiz,Dawson,59.42,142.88,61.23,170.1,374.21,Single-ply,SBD,M
Boys,59.87,2,Tyler Kaminski,Riesel,59.42,136.08,81.65,136.08,353.8,Single-ply,SBD,M
Boys,59.87,3,Eric Lewis,Corsicana Mildred,59.87,129.27,63.5,136.08,328.85,Single-ply,SBD,M
Boys,59.87,4,Seirgei Larson,Corsicana Mildred,59.42,115.67,72.57,127.01,315.25,Single-ply,SBD,M
Boys,59.87,5,Michael Lopez,Waco La Vega,58.97,104.33,70.31,117.93,292.57,Single-ply,SBD,M
Boys,59.87,6,Luis Dominguez,Rice,59.42,102.06,65.77,124.74,292.57,Single-ply,SBD,M
Boys,59.87,7,Dylan Hubik,Dawson,58.97,106.59,68.04,115.67,290.3,Single-ply,SBD,M
Boys,67.13,1,Tyrell Irby,Waco La Vega,66.22,229.06,129.27,240.4,598.74,Single-ply,SBD,M
Boys,67.13,2,Kyree Norman,Waco La Vega,67.13,226.8,111.13,219.99,557.92,Single-ply,SBD,M
Boys,67.13,3,Eric Wallace,Riesel,66.22,204.12,108.86,192.78,505.76,Single-ply,SBD,M
Boys,74.84,4,Trey Davis,Blooming Grove,67.22,185.97,99.79,204.12,489.88,Single-ply,SBD,M
Boys,67.13,5,Tracy Washington,Mexia,66.22,174.63,102.06,170.1,446.79,Single-ply,SBD,M
Boys,67.13,6,Jesus Jaimes,Riesel,62.6,181.44,99.79,154.22,435.45,Single-ply,SBD,M
Boys,67.13,7,Joe Posigian,Kaufman,65.32,165.56,79.38,174.63,419.57,Single-ply,SBD,M
Boys,67.13,8,Shabrodwick Hill,Athens,66.68,158.76,92.99,158.76,410.5,Single-ply,SBD,M
Boys,67.13,9,Alex Shedd,Riesel,64.86,149.69,90.72,167.83,408.23,Single-ply,SBD,M
Boys,67.13,10,Spencer Morris,Blooming Grove,66.68,151.95,81.65,149.69,383.29,Single-ply,SBD,M
Boys,67.13,11,Kane Butler,Wortham,61.69,133.81,88.45,145.15,367.41,Single-ply,SBD,M
Boys,67.13,12,Brandon Fortune,Alvarado,67.13,136.08,77.11,154.22,367.41,Single-ply,SBD,M
Boys,67.13,13,Ethan Smith,West,66.22,142.88,86.18,124.74,353.8,Single-ply,SBD,M
Boys,67.13,14,Hai Vuong,Mexia,63.5,120.2,83.91,142.88,347,Single-ply,SBD,M
Boys,67.13,15,Devon Deleon,Sunnyvale,65.32,117.93,72.57,147.42,337.93,Single-ply,SBD,M
Boys,67.13,16,Oscar Bonilla,Corsicana Mildred,63.5,127.01,65.77,142.88,335.66,Single-ply,SBD,M
Boys,67.13,17,Cole Anderson,West,67.13,136.08,63.5,124.74,324.32,Single-ply,SBD,M
Boys,67.13,18,Daniel Donaho,Corsicana Mildred,63.5,120.2,81.65,115.67,317.51,Single-ply,SBD,M
Boys,67.13,19,Daniel Palacious,Kaufman,67.13,124.74,63.5,122.47,310.71,Single-ply,SBD,M
Boys,67.13,20,Brady Baker,Riesel,62.6,124.74,54.43,127.01,306.17,Single-ply,SBD,M
Boys,67.13,21,Carlos Martinez,Athens,62.6,95.25,65.77,113.4,274.42,Single-ply,SBD,M
Boys,67.13,22,Evan Ruen,Groesbeck,62.6,99.79,61.23,113.4,274.42,Single-ply,SBD,M
Boys,67.13,23,Jake Maddux,Groesbeck,65.77,90.72,65.77,113.4,269.89,Single-ply,SBD,M
Boys,67.13,24,Daniel Salazar,Athens,62.6,86.18,65.77,113.4,265.35,Single-ply,SBD,M
Boys,67.13,25,Haven Praux,Wortham,65.32,79.38,43.09,113.4,235.87,Single-ply,SBD,M
Boys,67.13,26,Hayden Walraven,Alvarado,67.13,88.45,40.82,102.06,231.33,Single-ply,SBD,M
Boys,67.13,DQ,Jaylin Gilson,Groesbeck,67.13,136.08,77.11,,,Single-ply,SBD,M
Boys,74.84,1,Trent Stiles,Riesel,74.84,231.33,151.95,185.97,569.26,Single-ply,SBD,M
Boys,74.84,2,Jordan Taylor #1,Waco La Vega,74.39,192.78,127.01,226.8,546.58,Single-ply,SBD,M
Boys,74.84,3,Damian Kozak,Groesbeck,73.03,183.7,113.4,185.97,483.08,Single-ply,SBD,M
Boys,74.84,4,Hunter Morgan,Kaufman,73.48,183.7,108.86,170.1,462.66,Single-ply,SBD,M
Boys,74.84,5,Jake Wasinger,Blooming Grove,74.75,181.44,86.18,185.97,453.59,Single-ply,SBD,M
Boys,74.84,6,Josh Dickey,Scurry-Rosser,72.57,158.76,102.06,167.83,428.64,Single-ply,SBD,M
Boys,74.84,7,Colton Turbeville,Scurry-Rosser,74.39,167.83,104.33,151.95,424.11,Single-ply,SBD,M
Boys,74.84,8,Rylee Littrell,Scurry-Rosser,71.21,161.03,102.06,145.15,408.23,Single-ply,SBD,M
Boys,74.84,9,John Carter,Rice,73.94,149.69,86.18,163.29,399.16,Single-ply,SBD,M
Boys,74.84,10,Randy Gober,Waco La Vega,74.39,142.88,97.52,158.76,399.16,Single-ply,SBD,M
Boys,74.84,11,Rab Baldree,Blooming Grove,70.03,151.95,88.45,156.49,396.89,Single-ply,SBD,M
Boys,74.84,12,Jacob Davis,Corsicana Mildred,73.94,149.69,95.25,147.42,392.36,Single-ply,SBD,M
Boys,74.84,13,Brandon Garza,Sunnyvale,70.76,129.27,88.45,170.1,387.82,Single-ply,SBD,M
Boys,74.84,14,Darius Ennin,Sunnyvale,72.57,142.88,63.5,176.9,383.29,Single-ply,SBD,M
Boys,74.84,15,Stewart Chambers,Blooming Grove,69.49,131.54,72.57,176.9,381.02,Single-ply,SBD,M
Boys,74.84,16,Will Moss,Sunnyvale,68.95,129.27,79.38,163.29,371.95,Single-ply,SBD,M
Boys,74.84,17,Colton Hendrick,Groesbeck,72.57,136.08,72.57,147.42,356.07,Single-ply,SBD,M
Boys,74.84,18,Jeremy Tanner,Riesel,69.4,136.08,63.5,154.22,353.8,Single-ply,SBD,M
Boys,74.84,19,Thomas Tilford,Scurry-Rosser,72.12,142.88,81.65,129.27,353.8,Single-ply,SBD,M
Boys,74.84,20,Vernon Busby,Wortham,70.76,113.4,81.65,151.95,347,Single-ply,SBD,M
Boys,74.84,21,Joe Ritter,Corsicana Mildred,71.21,108.86,70.31,127.01,306.17,Single-ply,SBD,M
Boys,74.84,22,Nolan Milburne,Alvarado,69.85,113.4,68.04,111.13,292.57,Single-ply,SBD,M
Boys,74.84,DQ,Corey Schroeder,Riesel,70.31,158.76,,,,Single-ply,SBD,M
Boys,74.84,DQ,Jalcolby Cox,Scurry-Rosser,68.95,,,,,Single-ply,SBD,M
Boys,74.84,DQ,Clay Barnes,Sunnyvale,71.4,,,,,Single-ply,SBD,M
Boys,74.84,DQ,Patrick Wallace,Corsicana Mildred,69.4,111.13,,,,Single-ply,SBD,M
Boys,82.1,1,Jason Thomas,Corsicana Mildred,80.74,181.44,131.54,199.58,512.56,Single-ply,SBD,M
Boys,82.1,2,Martin Balderas,Groesbeck,80.29,183.7,108.86,185.97,478.54,Single-ply,SBD,M
Boys,82.1,3,Carlos Cruz,Scurry-Rosser,77.56,174.63,106.59,172.37,453.59,Single-ply,SBD,M
Boys,82.1,4,Jody Bernal,Rice,79.83,158.76,99.79,183.7,442.25,Single-ply,SBD,M
Boys,82.1,5,Kenny Adams,Alvarado,81.65,163.29,97.52,181.44,442.25,Single-ply,SBD,M
Boys,82.1,6,Josh Coleman,Athens,80.74,154.22,104.33,181.44,439.98,Single-ply,SBD,M
Boys,82.1,7,Corbin Russell,Corsicana Mildred,81.19,133.81,111.13,195.04,439.98,Single-ply,SBD,M
Boys,82.1,8,Caide Southard,Corsicana Mildred,80.74,142.88,106.59,188.24,437.72,Single-ply,SBD,M
Boys,82.1,9,Christian Reed,Kaufman,81.65,158.76,102.06,170.1,430.91,Single-ply,SBD,M
Boys,82.1,10,Brock McFarland,Blooming Grove,79.42,161.03,70.31,158.76,390.09,Single-ply,SBD,M
Boys,82.1,11,Alex Shaw,Dawson,77.11,140.61,88.45,158.76,387.82,Single-ply,SBD,M
Boys,82.1,12,Garrett Stribling,Scurry-Rosser,76.2,154.22,77.11,149.69,381.02,Single-ply,SBD,M
Boys,82.1,13,Chris Kunkel,West,75.75,142.88,88.45,147.42,378.75,Single-ply,SBD,M
Boys,82.1,14,Hayden Long,Sunnyvale,78.47,136.08,72.57,170.1,378.75,Single-ply,SBD,M
Boys,82.1,15,Ragan Henderson,Rice,81.19,136.08,95.25,147.42,378.75,Single-ply,SBD,M
Boys,82.1,16,Michael Kline,Kerens,79.83,138.35,74.84,156.49,369.68,Single-ply,SBD,M
Boys,89.81,17,Brandon Morris,Scurry-Rosser,82.28,156.49,79.38,124.74,360.61,Single-ply,SBD,M
Boys,82.1,18,Ben Parrish,Groesbeck,75.3,136.08,72.57,147.42,356.07,Single-ply,SBD,M
Boys,82.1,19,Clint LaCour,Scurry-Rosser,76.66,136.08,74.84,131.54,342.46,Single-ply,SBD,M
Boys,82.1,20,Anthony Manolakis,West,82.1,111.13,72.57,142.88,326.59,Single-ply,SBD,M
Boys,82.1,21,Bo Jackson,West,78.02,111.13,68.04,122.47,301.64,Single-ply,SBD,M
Boys,89.81,1,Daniel Johnston,Alvarado,89.81,226.8,133.81,231.33,591.94,Single-ply,SBD,M
Boys,89.81,2,Ali Cervantez,Riesel,87.54,208.65,129.27,219.99,557.92,Single-ply,SBD,M
Boys,89.81,3,Dj Woods,Kerens,83.46,229.06,113.4,210.92,553.38,Single-ply,SBD,M
Boys,89.81,4,Victor Rincon,Kaufman,83.01,183.7,120.2,204.12,508.02,Single-ply,SBD,M
Boys,89.81,5,Diontre Oliver,Mexia,86.64,181.44,102.06,206.38,489.88,Single-ply,SBD,M
Boys,89.81,6,Noah Pennell,Corsicana Mildred,89.81,181.44,95.25,195.04,471.74,Single-ply,SBD,M
Boys,89.81,7,Ben Torres,Rice,85.28,190.51,102.06,158.76,451.32,Single-ply,SBD,M
Boys,89.81,8,Josh Carroll,Waco La Vega,86.64,170.1,99.79,179.17,449.06,Single-ply,SBD,M
Boys,89.81,9,Tyler Dixon,Alvarado,85.28,190.51,90.72,165.56,446.79,Single-ply,SBD,M
Boys,89.81,10,Jason Wean,Kaufman,85.73,172.37,90.72,176.9,439.98,Single-ply,SBD,M
Boys,89.81,11,Ty Chambers,Blooming Grove,87.09,172.37,95.25,161.03,428.64,Single-ply,SBD,M
Boys,89.81,12,Austin Morgan,Sunnyvale,83.91,154.22,90.72,176.9,421.84,Single-ply,SBD,M
Boys,89.81,13,John Foster,Sunnyvale,87.09,145.15,99.79,176.9,421.84,Single-ply,SBD,M
Boys,89.81,14,Crosby Shafer,Sunnyvale,84.82,142.88,102.06,167.83,412.77,Single-ply,SBD,M
Boys,89.81,15,Brandon Castillo,West,85.28,145.15,79.38,170.1,394.63,Single-ply,SBD,M
Boys,89.81,16,Diego Hernandez,Mexia,88,138.35,81.65,165.56,385.55,Single-ply,SBD,M
Boys,89.81,17,Joseph Reddick,Riesel,86.18,163.29,72.57,145.15,381.02,Single-ply,SBD,M
Boys,89.81,18,Rene Marez,Mexia,89.36,142.88,56.7,147.42,347,Single-ply,SBD,M
Boys,89.81,19,Colton Villarreal,Dawson,85.73,113.4,72.57,147.42,333.39,Single-ply,SBD,M
Boys,89.81,20,Rowdy Goff,Alvarado,83.46,108.86,97.52,124.74,331.12,Single-ply,SBD,M
Boys,89.81,21,Justin Arredondo,Alvarado,89.36,102.06,68.04,124.74,294.84,Single-ply,SBD,M
Boys,89.81,22,Dylon Deaver,Athens,87.54,97.52,63.5,129.27,290.3,Single-ply,SBD,M
Boys,89.81,23,Stetson McCoy,Wortham,84.37,90.72,56.7,124.74,272.16,Single-ply,SBD,M
Boys,89.81,DQ,Blake Ridge,Wortham,87.09,131.54,,,,Single-ply,SBD,M
Boys,89.81,DQ,Samuel Porter,Alvarado,87.09,,,,,Single-ply,SBD,M
Boys,89.81,DQ,Cj Johnson,Alvarado,84.37,,,,,Single-ply,SBD,M
Boys,89.81,DQ,Tommy Beldin,Rice,87.09,190.51,,,,Single-ply,SBD,M
Boys,99.79,1,Tyler Fadal,Riesel,90.26,208.65,138.35,195.04,542.04,Single-ply,SBD,M
Boys,99.79,2,Josh Ferrer,Blooming Grove,98.97,208.65,142.88,190.51,542.04,Single-ply,SBD,M
Boys,99.79,3,Payton Weaver,Corsicana Mildred,95.25,174.63,124.74,217.72,517.1,Single-ply,SBD,M
Boys,99.79,4,Aj Castillo,Alvarado,92.99,201.85,129.27,183.7,514.83,Single-ply,SBD,M
Boys,99.79,5,Dustin Westerfield,Waco La Vega,90.26,199.58,120.2,163.29,483.08,Single-ply,SBD,M
Boys,99.79,6,Chris Collier,Alvarado,96.16,174.63,108.86,181.44,464.93,Single-ply,SBD,M
Boys,99.79,7,Chris Perez,Wortham,93.44,149.69,97.52,185.97,433.18,Single-ply,SBD,M
Boys,99.79,8,Garret Uptmore,West,95.25,158.76,92.99,181.44,433.18,Single-ply,SBD,M
Boys,99.79,9,Cory Morelock,Corsicana Mildred,97.98,127.01,102.06,158.76,387.82,Single-ply,SBD,M
Boys,99.79,10,Taylor Barlow,Corsicana Mildred,99.34,122.47,90.72,142.88,356.07,Single-ply,SBD,M
Boys,99.79,11,Eduardo Limon,Athens,92.53,113.4,74.84,145.15,333.39,Single-ply,SBD,M
Boys,99.79,12,Clayton Orman,West,92.08,111.13,63.5,111.13,285.76,Single-ply,SBD,M
Boys,99.79,13,Louis Melvin,West,95.25,111.13,72.57,95.25,278.96,Single-ply,SBD,M
Boys,99.79,DQ,Brian Gutierrez,Athens,94.35,147.42,,,,Single-ply,SBD,M
Boys,109.77,1,Josh Cade,Blooming Grove,107.95,272.16,124.74,238.14,635.03,Single-ply,SBD,M
Boys,109.77,2,Juan Santoyo,Kaufman,101.15,238.14,156.49,215.46,610.08,Single-ply,SBD,M
Boys,109.77,3,Casey Stripling,Riesel,108.86,226.8,136.08,208.65,571.53,Single-ply,SBD,M
Boys,109.77,4,Kirk Williams,Dawson,100.7,204.12,111.13,229.06,544.31,Single-ply,SBD,M
Boys,109.77,5,Andres Lara,Mexia,109.77,226.8,113.4,204.12,544.31,Single-ply,SBD,M
Boys,109.77,6,Nathan Donovan,Alvarado,105.23,183.7,124.74,192.78,501.22,Single-ply,SBD,M
Boys,109.77,7,Austin Brown,Hubbard,105.69,183.7,127.01,190.51,501.22,Single-ply,SBD,M
Boys,109.77,8,Jeffery Weir,Waco La Vega,102.97,167.83,102.06,181.44,451.32,Single-ply,SBD,M
Boys,109.77,9,Jody Thomson,Kaufman,107.5,163.29,92.99,145.15,401.43,Single-ply,SBD,M
Boys,109.77,10,Donovan Freeman,Wortham,104.33,102.06,79.38,142.88,324.32,Single-ply,SBD,M
Boys,109.77,11,Scott Shkora,Wortham,104.33,124.74,79.38,102.06,306.17,Single-ply,SBD,M
Boys,109.77,DQ,Roddy Williams,Hubbard,105.23,158.76,102.06,,,Single-ply,SBD,M
Boys,124.74,1,Nick Richardson,Athens,118.84,226.8,133.81,217.72,578.33,Single-ply,SBD,M
Boys,124.74,2,Brett Bridgewater,Alvarado,124.28,226.8,129.27,208.65,564.72,Single-ply,SBD,M
Boys,124.74,3,Dylan Pasley,Kaufman,115.67,204.12,127.01,204.12,535.24,Single-ply,SBD,M
Boys,124.74,4,Khiry Hart,Waco La Vega,122.02,215.46,129.27,190.51,535.24,Single-ply,SBD,M
Boys,124.74,5,Jake Glasscock,Alvarado,113.4,217.72,129.27,185.97,532.97,Single-ply,SBD,M
Boys,124.74,6,Kyle Marshall,Scurry-Rosser,117.48,222.26,142.88,165.56,530.7,Single-ply,SBD,M
Boys,124.74,7,Lee Demmings,Dawson,119.75,217.72,133.81,174.63,526.17,Single-ply,SBD,M
Boys,124.74,8,Beau Jenkins,Corsicana Mildred,112.49,179.17,136.08,208.65,523.9,Single-ply,SBD,M
Boys,124.74,9,Tony Barraza,Groesbeck,117.93,213.19,113.4,181.44,508.02,Single-ply,SBD,M
Boys,124.74,10,Tyler Heard,Scurry-Rosser,119.75,185.97,115.67,158.76,460.4,Single-ply,SBD,M
Boys,124.74,11,Chris Hobbs,Kerens,111.13,172.37,97.52,183.7,453.59,Single-ply,SBD,M
Boys,124.74,12,Kyle Burgess,Alvarado,123.38,145.15,102.06,174.63,421.84,Single-ply,SBD,M
Boys,124.74,13,Alberto Rios,Athens,114.31,151.95,88.45,161.03,401.43,Single-ply,SBD,M
Boys,124.74,14,Jd Robinson,Wortham,114.76,102.06,61.23,129.27,292.57,Single-ply,SBD,M
Boys,124.74,DQ,Dae'Vodrick Williams,Hubbard,114.31,136.08,,,,Single-ply,SBD,M
Boys,124.74+,1,Shawn McKinney,Hubbard,173.27,260.82,165.56,231.33,657.71,Single-ply,SBD,M
Boys,124.74+,2,Brandon Allen #2,Mexia,142.88,249.48,133.81,206.38,589.67,Single-ply,SBD,M
Boys,124.74+,3,Ethan Still,Kerens,149.23,163.29,79.38,142.88,385.55,Single-ply,SBD,M
Boys,124.74+,4,Nick Barlow,Corsicana Mildred,141.07,113.4,92.99,170.1,376.48,Single-ply,SBD,M
Boys,124.74+,DQ,Spencer Thorton,Wortham,130.18,,,,,Single-ply,SBD,M
