Name,WeightClassKg,Division,Best3SquatKg,Best3BenchKg,Best3DeadliftKg,TotalKg,Sex,Event,Equipment,Place,Team
Alex Carp,90,M-Jr,208.65,136.08,215.46,560.19,M,SBD,Single-ply,1,
Justin Behnke,125+,M-O,206.38,181.44,206.38,594.21,M,SBD,Single-ply,1,
Brad Coury,100,M-M3,65.77,161.03,208.65,435.45,M,SBD,Single-ply,1,
Kevin Stewart #1,125,M-M1,317.51,229.06,310.71,857.29,M,SBD,Single-ply,1,
Andrew Snider,125+,M-O,242.67,,,,M,SBD,Single-ply,DQ,
